\relax 
\@writefile{toc}{\contentsline {chapter}{\numberline {V}PENGUJIAN DAN HASIL}{20}\protected@file@percent }
\@writefile{lof}{\addvspace {10\p@ }}
\@writefile{lot}{\addvspace {10\p@ }}
\@writefile{toc}{\contentsline {section}{\numberline {5.1}Pengujian}{20}\protected@file@percent }
\@writefile{toc}{\contentsline {subsection}{\numberline {5.1.1}Analisis Sistem}{20}\protected@file@percent }
\@writefile{toc}{\contentsline {paragraph}{}{20}\protected@file@percent }
\@writefile{lof}{\contentsline {figure}{\numberline {V.1}{\ignorespaces Model Perancangan Sistem Waterfall\relax }}{20}\protected@file@percent }
\newlabel{waterfall}{{V.1}{20}}
\@writefile{toc}{\contentsline {subsubsection}{\numberline {5.1.1.1}Analisis Sistem yang Sedang Berjalan}{20}\protected@file@percent }
\@writefile{toc}{\contentsline {paragraph}{}{20}\protected@file@percent }
\@writefile{toc}{\contentsline {subsubsection}{\numberline {5.1.1.2}Analisis Sistem yang Akan di Bangun}{20}\protected@file@percent }
\@writefile{toc}{\contentsline {paragraph}{}{20}\protected@file@percent }
\citation{yanto2016manajemen}
\@writefile{lof}{\contentsline {figure}{\numberline {V.2}{\ignorespaces Proses Bisnis Pengiriman Pertanyaan\relax }}{21}\protected@file@percent }
\newlabel{berjalan}{{V.2}{21}}
\@writefile{toc}{\contentsline {subsubsection}{\numberline {5.1.1.3}Analisis Kebutuhan Aplikasi}{21}\protected@file@percent }
\@writefile{toc}{\contentsline {paragraph}{}{21}\protected@file@percent }
\@writefile{toc}{\contentsline {subsubsection}{\numberline {5.1.1.4}Perancangan Basis Data}{21}\protected@file@percent }
\@writefile{toc}{\contentsline {paragraph}{}{21}\protected@file@percent }
\@writefile{lof}{\contentsline {figure}{\numberline {V.3}{\ignorespaces Proses Bisnis Setelah Mengimplementasikan Cosine similarity\relax }}{22}\protected@file@percent }
\newlabel{dibangun}{{V.3}{22}}
\@writefile{lot}{\contentsline {table}{\numberline {V.1}{\ignorespaces Deskripsi Kebutuhan Minumum Perangkat Keras\relax }}{22}\protected@file@percent }
\newlabel{table2}{{V.1}{22}}
\@writefile{lot}{\contentsline {table}{\numberline {V.2}{\ignorespaces Deskripsi Kebutuhan Minumum Perangkat Lunak\relax }}{22}\protected@file@percent }
\newlabel{table1}{{V.2}{22}}
\citation{howden1980functional}
\citation{alegroth2013transitioning}
\@writefile{lof}{\contentsline {figure}{\numberline {V.4}{\ignorespaces Perancangan Basis Data\relax }}{23}\protected@file@percent }
\newlabel{db}{{V.4}{23}}
\@writefile{toc}{\contentsline {subsection}{\numberline {5.1.2}Implementasi dan Pengujian Sistem}{23}\protected@file@percent }
\@writefile{toc}{\contentsline {paragraph}{}{23}\protected@file@percent }
\@writefile{lof}{\contentsline {figure}{\numberline {V.5}{\ignorespaces Halaman Login\relax }}{24}\protected@file@percent }
\newlabel{impLogin}{{V.5}{24}}
\@writefile{lot}{\contentsline {table}{\numberline {V.3}{\ignorespaces Lingkungan Perangkat Keras\relax }}{24}\protected@file@percent }
\newlabel{hardware}{{V.3}{24}}
\@writefile{lot}{\contentsline {table}{\numberline {V.4}{\ignorespaces Lingkungan Perangkat Lunak\relax }}{24}\protected@file@percent }
\newlabel{software}{{V.4}{24}}
\@writefile{lof}{\contentsline {figure}{\numberline {V.6}{\ignorespaces Halaman Master Keywords\relax }}{25}\protected@file@percent }
\newlabel{impKeyword}{{V.6}{25}}
\@writefile{lot}{\contentsline {table}{\numberline {V.5}{\ignorespaces Lingkungan Pengujian Server\relax }}{25}\protected@file@percent }
\newlabel{server}{{V.5}{25}}
\@writefile{toc}{\contentsline {subsection}{\numberline {5.1.3}Pengujian Algoritma}{25}\protected@file@percent }
\@writefile{toc}{\contentsline {paragraph}{}{25}\protected@file@percent }
\@writefile{lof}{\contentsline {figure}{\numberline {V.7}{\ignorespaces Halaman Master Pesan\relax }}{26}\protected@file@percent }
\newlabel{impPesan}{{V.7}{26}}
\@writefile{lot}{\contentsline {table}{\numberline {V.6}{\ignorespaces Data Sampel yang di Ujikan\relax }}{26}\protected@file@percent }
\newlabel{dataTesting}{{V.6}{26}}
\@writefile{lot}{\contentsline {table}{\numberline {V.7}{\ignorespaces Pesan dirubah Ke Dalam Bahasa Inggris\relax }}{26}\protected@file@percent }
\newlabel{trans}{{V.7}{26}}
\@writefile{lof}{\contentsline {figure}{\numberline {V.8}{\ignorespaces Halaman Master Template\relax }}{27}\protected@file@percent }
\newlabel{impTemplate}{{V.8}{27}}
\@writefile{lof}{\contentsline {figure}{\numberline {V.9}{\ignorespaces Test Case Login\relax }}{27}\protected@file@percent }
\newlabel{caseLogin}{{V.9}{27}}
\@writefile{lot}{\contentsline {table}{\numberline {V.8}{\ignorespaces Proses Tokenization\relax }}{27}\protected@file@percent }
\newlabel{tokenize}{{V.8}{27}}
\@writefile{lof}{\contentsline {figure}{\numberline {V.10}{\ignorespaces Test Case Mengelola Keywords\relax }}{28}\protected@file@percent }
\newlabel{caseKeyword}{{V.10}{28}}
\@writefile{lof}{\contentsline {figure}{\numberline {V.11}{\ignorespaces Test Case Mengelola Pesan\relax }}{28}\protected@file@percent }
\newlabel{caseMessage}{{V.11}{28}}
\@writefile{lot}{\contentsline {table}{\numberline {V.9}{\ignorespaces Proses Normalization\relax }}{28}\protected@file@percent }
\newlabel{normal}{{V.9}{28}}
\@writefile{lot}{\contentsline {table}{\numberline {V.10}{\ignorespaces Proses Stemming\relax }}{28}\protected@file@percent }
\newlabel{stemming}{{V.10}{28}}
\@writefile{lof}{\contentsline {figure}{\numberline {V.12}{\ignorespaces Test Case Mengelola Templates\relax }}{29}\protected@file@percent }
\newlabel{caseTemplate}{{V.12}{29}}
\@writefile{lof}{\contentsline {figure}{\numberline {V.13}{\ignorespaces Hasil dari Test Case yang sudah Dijalankan\relax }}{29}\protected@file@percent }
\newlabel{resultCase}{{V.13}{29}}
\@writefile{lof}{\contentsline {figure}{\numberline {V.14}{\ignorespaces Hasil dari Test Case yang sudah Dijalankan\relax }}{29}\protected@file@percent }
\newlabel{template}{{V.14}{29}}
\@writefile{lot}{\contentsline {table}{\numberline {V.11}{\ignorespaces Keywords yang akan dibandingkan hasil dari preprocessing\relax }}{30}\protected@file@percent }
\newlabel{cosineCompare}{{V.11}{30}}
\@writefile{lot}{\contentsline {table}{\numberline {V.12}{\ignorespaces Matirx Data Pengujian dan Pembanding\relax }}{30}\protected@file@percent }
\newlabel{matrixPenguji}{{V.12}{30}}
\@writefile{toc}{\contentsline {section}{\numberline {5.2}Hasil}{30}\protected@file@percent }
\@writefile{toc}{\contentsline {paragraph}{}{30}\protected@file@percent }
\@writefile{lot}{\contentsline {table}{\numberline {V.13}{\ignorespaces Matirx Data Primer dan Pembanding\relax }}{30}\protected@file@percent }
\newlabel{matrixComparison}{{V.13}{30}}
\@writefile{lof}{\contentsline {figure}{\numberline {V.15}{\ignorespaces Rumus Umum Cosine Similarity\relax }}{31}\protected@file@percent }
\newlabel{cosine}{{V.15}{31}}
\@writefile{lof}{\contentsline {figure}{\numberline {V.16}{\ignorespaces Hasil Pengujian Waktu Balas Sistem\relax }}{31}\protected@file@percent }
\newlabel{res}{{V.16}{31}}
\@setckpt{section/chapter5}{
\setcounter{page}{32}
\setcounter{equation}{0}
\setcounter{enumi}{5}
\setcounter{enumii}{0}
\setcounter{enumiii}{0}
\setcounter{enumiv}{0}
\setcounter{footnote}{0}
\setcounter{mpfootnote}{0}
\setcounter{part}{0}
\setcounter{chapter}{5}
\setcounter{section}{2}
\setcounter{subsection}{0}
\setcounter{subsubsection}{0}
\setcounter{paragraph}{0}
\setcounter{subparagraph}{0}
\setcounter{figure}{16}
\setcounter{table}{13}
\setcounter{caption@flags}{0}
\setcounter{ContinuedFloat}{0}
}
